{
 "_type": "https://in-toto.io/Statement/v0.1",
 "predicateType": "https://slsa.dev/provenance/v0.2",
 "subject": [],
 "predicate": {
  "builder": {
   "id": "https://gitlab.com/pfe-tsp-study-on-modern-software-supply-chain-security-and-sbom/juice-shop-security-experiments/-/runners/12270852"
  },
  "buildType": "https://gitlab.com/gitlab-org/gitlab-runner/-/blob/b5664e8e/PROVENANCE.md",
  "invocation": {
   "configSource": {
    "uri": "https://gitlab.com/pfe-tsp-study-on-modern-software-supply-chain-security-and-sbom/juice-shop-security-experiments",
    "digest": {
     "sha256": "d7018bbf9f0a468d29b167c9f86c195bdfef5fa9"
    }
   },
   "parameters": {
    "CI": "",
    "CI_API_GRAPHQL_URL": "",
    "CI_API_V4_URL": "",
    "CI_COMMIT_AUTHOR": "",
    "CI_COMMIT_BEFORE_SHA": "",
    "CI_COMMIT_BRANCH": "",
    "CI_COMMIT_DESCRIPTION": "",
    "CI_COMMIT_MESSAGE": "",
    "CI_COMMIT_REF_NAME": "",
    "CI_COMMIT_REF_PROTECTED": "",
    "CI_COMMIT_REF_SLUG": "",
    "CI_COMMIT_SHA": "",
    "CI_COMMIT_SHORT_SHA": "",
    "CI_COMMIT_TIMESTAMP": "",
    "CI_COMMIT_TITLE": "",
    "CI_CONFIG_PATH": "",
    "CI_DEBUG_TRACE": "",
    "CI_DEFAULT_BRANCH": "",
    "CI_DEPENDENCY_PROXY_DIRECT_GROUP_IMAGE_PREFIX": "",
    "CI_DEPENDENCY_PROXY_GROUP_IMAGE_PREFIX": "",
    "CI_DEPENDENCY_PROXY_PASSWORD": "",
    "CI_DEPENDENCY_PROXY_SERVER": "",
    "CI_DEPENDENCY_PROXY_USER": "",
    "CI_JOB_ID": "",
    "CI_JOB_JWT": "",
    "CI_JOB_JWT_V1": "",
    "CI_JOB_JWT_V2": "",
    "CI_JOB_NAME": "",
    "CI_JOB_NAME_SLUG": "",
    "CI_JOB_STAGE": "",
    "CI_JOB_STARTED_AT": "",
    "CI_JOB_TOKEN": "",
    "CI_JOB_URL": "",
    "CI_NODE_TOTAL": "",
    "CI_PAGES_DOMAIN": "",
    "CI_PAGES_URL": "",
    "CI_PIPELINE_CREATED_AT": "",
    "CI_PIPELINE_ID": "",
    "CI_PIPELINE_IID": "",
    "CI_PIPELINE_NAME": "",
    "CI_PIPELINE_SOURCE": "",
    "CI_PIPELINE_URL": "",
    "CI_PROJECT_CLASSIFICATION_LABEL": "",
    "CI_PROJECT_DESCRIPTION": "",
    "CI_PROJECT_ID": "",
    "CI_PROJECT_NAME": "",
    "CI_PROJECT_NAMESPACE": "",
    "CI_PROJECT_NAMESPACE_ID": "",
    "CI_PROJECT_PATH": "",
    "CI_PROJECT_PATH_SLUG": "",
    "CI_PROJECT_REPOSITORY_LANGUAGES": "",
    "CI_PROJECT_ROOT_NAMESPACE": "",
    "CI_PROJECT_TITLE": "",
    "CI_PROJECT_URL": "",
    "CI_PROJECT_VISIBILITY": "",
    "CI_REGISTRY": "",
    "CI_REGISTRY_IMAGE": "",
    "CI_REGISTRY_PASSWORD": "",
    "CI_REGISTRY_USER": "",
    "CI_REPOSITORY_URL": "",
    "CI_RUNNER_DESCRIPTION": "",
    "CI_RUNNER_ID": "",
    "CI_RUNNER_TAGS": "",
    "CI_SERVER_HOST": "",
    "CI_SERVER_NAME": "",
    "CI_SERVER_PORT": "",
    "CI_SERVER_PROTOCOL": "",
    "CI_SERVER_REVISION": "",
    "CI_SERVER_SHELL_SSH_HOST": "",
    "CI_SERVER_SHELL_SSH_PORT": "",
    "CI_SERVER_URL": "",
    "CI_SERVER_VERSION": "",
    "CI_SERVER_VERSION_MAJOR": "",
    "CI_SERVER_VERSION_MINOR": "",
    "CI_SERVER_VERSION_PATCH": "",
    "CI_TEMPLATE_REGISTRY_HOST": "",
    "CS_ANALYZER_IMAGE": "",
    "CS_SCHEMA_MODEL": "",
    "DS_ANALYZER_IMAGE": "",
    "DS_ANALYZER_NAME": "",
    "DS_EXCLUDED_ANALYZERS": "",
    "DS_EXCLUDED_PATHS": "",
    "DS_MAJOR_VERSION": "",
    "DS_SCHEMA_MODEL": "",
    "GEMNASIUM_LIBRARY_SCAN_ENABLED": "",
    "GITLAB_CI": "",
    "GITLAB_FEATURES": "",
    "GITLAB_USER_EMAIL": "",
    "GITLAB_USER_ID": "",
    "GITLAB_USER_LOGIN": "",
    "GITLAB_USER_NAME": "",
    "RUNNER_GENERATE_ARTIFACTS_METADATA": "",
    "SAST_EXCLUDED_ANALYZERS": "",
    "SAST_EXCLUDED_PATHS": "",
    "SAST_IMAGE_SUFFIX": "",
    "SCAN_KUBERNETES_MANIFESTS": "",
    "SECRETS_ANALYZER_VERSION": "",
    "SECRET_DETECTION_EXCLUDED_PATHS": "",
    "SECRET_DETECTION_IMAGE_SUFFIX": "",
    "SECURE_ANALYZERS_PREFIX": "",
    "SECURE_LOG_LEVEL": ""
   },
   "environment": {
    "name": "green-3.saas-linux-small-amd64.runners-manager.gitlab.com/default",
    "executor": "docker+machine",
    "architecture": "amd64",
    "job": {
     "id": 5958507388
    }
   }
  },
  "metadata": {
   "buildStartedOn": "2024-01-18T13:14:17Z",
   "buildFinishedOn": "2024-01-18T13:14:45Z",
   "completeness": {
    "parameters": true,
    "environment": true,
    "materials": false
   },
   "reproducible": false
  }
 }
}